{
  "success": true,
  "data": {
    "name": "3D",
    "description": "Hoạt hình 3D chân thật hơn, giống thật mà không phải là thật!",
    "total": 73,
    "pages": 4,
    "page": 1,
    "videos": [
      {
        "image": "https://hentaiz.cc/images/thumb/Meru-the-Succubus-OVA-1.jpg",
        "slug": "meru-the-succubus-ova-1",
        "title": "Meru the Succubus OVA 1",
        "studios": ["Skuddbutt"]
      },
      {
        "image": "https://hentaiz.cc/images/thumb/Skyrim-Girl-Like-Big-Orc-Dick.jpg",
        "slug": "skyrim-girl-like-big-orc-dick-1",
        "title": "Skyrim Girl Like Big Orc Dick 1",
        "studios": ["N/A"]
      },
      {
        "image": "https://hentaiz.cc/images/thumb/First-Assignment-Extended-Edition.jpg",
        "slug": "first-assignment-extended-edition-1",
        "title": "First Assignment Extended Edition 1",
        "studios": ["26RegionSFM"]
      },
      {
        "image": "https://hentaiz.cc/images/thumb/Secret-of-Beauty-4.jpg",
        "slug": "secret-of-beauty-4",
        "title": "Secret of Beauty 4",
        "studios": ["affect3D"]
      },
      {
        "image": "https://hentaiz.cc/images/thumb/secret-of-beauty-3.jpg",
        "slug": "secret-of-beauty-3",
        "title": "Secret of Beauty 3",
        "studios": ["affect3D"]
      },
      {
        "image": "https://hentaiz.cc/images/thumb/Secret-of-Beauty-Orc-Ritual.jpg",
        "slug": "secret-of-beauty-orc-ritual-1",
        "title": "Secret of Beauty 2",
        "studios": ["affect3D"]
      },
      {
        "image": "https://hentaiz.cc/images/thumb/Secret-of-Beauty-Stone-Lady.jpg",
        "slug": "secret-of-beauty-stone-lady-1",
        "title": "Secret of Beauty 1",
        "studios": ["affect3D"]
      },
      {
        "image": "https://hentaiz.cc/images/thumb/Wolf-girl-with-you-1.jpg",
        "slug": "wolf-girl-with-you",
        "title": "Wolf girl with you 1",
        "studios": ["Seismic"]
      },
      {
        "image": "https://hentaiz.cc/images/thumb/Subverse-1.jpg",
        "slug": "subverse-1",
        "title": "Subverse 1",
        "studios": ["FOW"]
      },
      {
        "image": "https://hentaiz.cc/images/thumb/To-love-ru-diary-SISTER.jpg",
        "slug": "to-love-ru-diary-sister-1",
        "title": "To Love-ru Diary SISTER 1",
        "studios": ["marmalade*star"]
      },
      {
        "image": "https://hentaiz.cc/images/thumb/To-love-ru-diary-TEACHER.jpg",
        "slug": "to-love-ru-diary-teacher-1",
        "title": "To love-ru diary TEACHER 1",
        "studios": ["marmalade*star"]
      },
      {
        "image": "https://hentaiz.cc/images/thumb/Aunt's-Hospitality.jpg",
        "slug": "aunts-hospitality-1",
        "title": "Aunt’s Hospitality 1",
        "studios": ["Dezmall"]
      },
      {
        "image": "https://hentaiz.cc/images/thumb/Opiumud-Avalanche-Final-Fantasy-7.jpg",
        "slug": "opiumud-036-avalanche-1",
        "title": "(opiumud-036) Avalanche 1",
        "studios": ["opiumud"]
      },
      {
        "image": "https://hentaiz.cc/images/thumb/Girl-vs-Goddess.jpg",
        "slug": "girl-vs-goddess-1",
        "title": "Girl vs Goddess 1",
        "studios": ["Amusteven"]
      },
      {
        "image": "https://hentaiz.cc/images/thumb/Night-Color-Fox.jpg",
        "slug": "nightcolor-fox-1",
        "title": "NightColor Fox 1",
        "studios": ["Nekokoya"]
      },
      {
        "image": "https://hentaiz.cc/images/thumb/Wild-Life-Serenia-x-Grok.jpg",
        "slug": "wild-life-serenia-x-grok-1",
        "title": "Wild Life – Serenia x Grok 1",
        "studios": ["Wild Life"]
      },
      {
        "image": "https://hentaiz.cc/images/thumb/Tifa-Lockhart-in-Public-Toilet.jpg",
        "slug": "tifa-lockhart-in-public-toilet-1",
        "title": "Tifa Lockhart in Public Toilet 1",
        "studios": ["Axel3D"]
      },
      {
        "image": "https://hentaiz.cc/images/thumb/demonic-Mirror.jpg",
        "slug": "demonic-mirror-1",
        "title": "Demonic Mirror 1",
        "studios": ["PerfectDeadbeat"]
      },
      {
        "image": "https://hentaiz.cc/images/thumb/Mothers-Warmth.jpg",
        "slug": "mothers-warmth-1",
        "title": "Mother’s Warmth 1",
        "studios": ["Jackerman"]
      },
      {
        "image": "https://hentaiz.cc/images/thumb/(Opiumud-035)-Sisters-Invitation.jpg",
        "slug": "opiumud-035-sisters-invitation-1",
        "title": "(Opiumud-035) Sister’s Invitation 1",
        "studios": ["opiumud"]
      },
      {
        "image": "https://hentaiz.cc/images/thumb/Valentine-Chronicles-Infection.jpg",
        "slug": "valentine-chronicles-infection-1",
        "title": "Valentine Chronicles Infection 1",
        "studios": ["Forged3DX"]
      },
      {
        "image": "https://hentaiz.cc/images/thumb/casting-call.jpg",
        "slug": "casting-call-1",
        "title": "Casting Call 1",
        "studios": ["TheCount"]
      },
      {
        "image": "https://hentaiz.cc/images/thumb/Umemaro-Vol-18-Mari's-sexual-circumstances.jpg",
        "slug": "umemaro-vol-18-maris-sexual-circumstances-1",
        "title": "Umemaro Vol 18 – Mari’s sexual circumstances 1",
        "studios": ["Umemaro 3D"]
      },
      {
        "image": "https://hentaiz.cc/images/thumb/Momiji-demon-hunter.jpg",
        "slug": "momiji-demon-hunter-1",
        "title": "Momiji Demon Hunter 1",
        "studios": ["26RegionSFM"]
      }
    ]
  }
}
